Resumen del curso: Análisis Avanzado de Datos con Inteligencia Artificial
…
library(readxl)
Employment <- read_excel(
    path = ruta_archivo,
    sheet = "BLS Data Series",
    skip = 10
)
print(Employment)

# A tibble: 34 × 13
    Year     Jan     Feb    Mar    Apr    May    Jun    Jul    Aug    Sep    Oct
   <dbl>   <dbl>   <dbl>  <dbl>  <dbl>  <dbl>  <dbl>  <dbl>  <dbl>  <dbl>  <dbl>
 1  1990 1926822 1925073 1.93e6 1.92e6 1.95e6 1.97e6 1.97e6 1.97e6 1.95e6 1.95e6
 2  1991 1885375 1883098 1.89e6 1.88e6 1.89e6 1.92e6 1.93e6 1.93e6 1.92e6 1.93e6
 3  1992 1894424 1899597 1.92e6 1.92e6 1.94e6 1.97e6 1.99e6 2.00e6 1.98e6 1.98e6
 4  1993 1938981 1952196 1.96e6 1.96e6 1.99e6 2.01e6 2.03e6 2.04e6 2.01e6 2.03e6
 5  1994 1991219 1995877 1.99e6 1.99e6 2.02e6 2.03e6 2.04e6 2.06e6 2.06e6 2.07e6
 6  1995 2025320 2033049 2.03e6 2.03e6 2.05e6 2.07e6 2.09e6 2.10e6 2.08e6 2.10e6
 7  1996 2065141 2088135 2.10e6 2.09e6 2.11e6 2.12e6 2.14e6 2.14e6 2.12e6 2.14e6
 8  1997 2084132 2094341 2.11e6 2.11e6 2.13e6 2.14e6 2.16e6 2.17e6 2.16e6 2.17e6
 9  1998 2130920 2144643 2.15e6 2.15e6 2.17e6 2.18e6 2.13e6 2.19e6 2.19e6 2.20e6
10  1999 2176325 2181836 2.20e6 2.20e6 2.23e6 2.24e6 2.25e6 2.25e6 2.23e6 2.25e6
# ℹ 24 more rows
# ℹ 2 more variables: Nov <dbl>, Dec <dbl>
…
